Using tidymodels package - Part 2 - New York city flights
…
• Holiday features from: flight_date | Trained

• Dummy variables from: origin, dest, carrier, ... | Trained

• Zero variance filter removed: flight_date_USJuneteenthNationalIndependenceDay
  and dest_LEX | Trained

Code

fitted_model1 |>
    extract_fit_engine() |>
    tidy()

# A tibble: 157 × 5
   term                                estimate std.error statistic  p.value
   <chr>                                  <dbl>     <dbl>     <dbl>    <dbl>
 1 (Intercept)                          2.70    2.73          0.990 3.22e- 1
 2 dep_time                            -0.00165 0.0000140  -118.    0       
 3 air_time                            -0.0437  0.000561    -77.9   0       
 4 distance                             0.00745 0.00150       4.95  7.40e- 7
 5 flight_date_USChristmasDay           1.39    0.184         7.55  4.29e-14
 6 flight_date_USColumbusDay            0.893   0.189         4.73  2.21e- 6
 7 flight_date_USCPulaskisBirthday      0.886   0.144         6.15  7.74e-10
 8 flight_date_USDecorationMemorialDay  0.704   0.127         5.56  2.74e- 8
 9 flight_date_USElectionDay            0.931   0.187         4.97  6.71e- 7
10 flight_date_USGoodFriday             1.19    0.162         7.36  1.82e-13
# ℹ 147 more rows
…
